\relax 
\@writefile{toc}{\contentsline {section}{\numberline {1}Introduction}{1}}
\@writefile{toc}{\contentsline {subsection}{\numberline {1.1}Relation to Coursework 3}{1}}
\@writefile{toc}{\contentsline {subsection}{\numberline {1.2}Research Questions}{1}}
\citation{stanford}
\@writefile{toc}{\contentsline {subsection}{\numberline {1.3}Overview of Convolutional Neural Networks}{2}}
\@writefile{toc}{\contentsline {section}{\numberline {2}Baseline}{2}}
\@writefile{toc}{\contentsline {subsection}{\numberline {2.1}Model}{2}}
\citation{tensorflow}
\citation{tensorflow}
\@writefile{toc}{\contentsline {subsection}{\numberline {2.2}Results And Discussion}{3}}
\@writefile{lof}{\contentsline {figure}{\numberline {1}{\ignorespaces Error rates on training set}}{3}}
\@writefile{lof}{\contentsline {figure}{\numberline {2}{\ignorespaces Accuracy rates on training set}}{4}}
\@writefile{lof}{\contentsline {figure}{\numberline {3}{\ignorespaces Error rates on validation set}}{4}}
\citation{dropout}
\@writefile{lof}{\contentsline {figure}{\numberline {4}{\ignorespaces Accuracy rates on validation set}}{5}}
\@writefile{toc}{\contentsline {section}{\numberline {3}Experiment 1 - Dropout}{5}}
\@writefile{toc}{\contentsline {subsection}{\numberline {3.1}Background}{5}}
\@writefile{toc}{\contentsline {subsection}{\numberline {3.2}Experimental Methods}{5}}
\@writefile{toc}{\contentsline {subsection}{\numberline {3.3}Results and Discussion}{6}}
\@writefile{lof}{\contentsline {figure}{\numberline {5}{\ignorespaces Accuracy rates on training set with 3 layers of dropout}}{6}}
\@writefile{lof}{\contentsline {figure}{\numberline {6}{\ignorespaces Error rates on validation set with 3 layers of dropout}}{7}}
\@writefile{lof}{\contentsline {figure}{\numberline {7}{\ignorespaces Accuracy rates on validation set with 3 layers of dropout}}{7}}
\@writefile{lof}{\contentsline {figure}{\numberline {8}{\ignorespaces Accuracy rates on validation set with 1 layer of dropout}}{8}}
\@writefile{lof}{\contentsline {figure}{\numberline {9}{\ignorespaces Comparison on validation set accuracy}}{8}}
\@writefile{toc}{\contentsline {section}{\numberline {4}Experiment 2 - Kernel Size}{9}}
\@writefile{toc}{\contentsline {subsection}{\numberline {4.1}Background}{9}}
\@writefile{toc}{\contentsline {subsection}{\numberline {4.2}Experimental Method}{9}}
\@writefile{toc}{\contentsline {subsection}{\numberline {4.3}Results and Discussion}{9}}
\@writefile{lof}{\contentsline {figure}{\numberline {10}{\ignorespaces Error rates on validation set with different patch sizes}}{10}}
\@writefile{lof}{\contentsline {figure}{\numberline {11}{\ignorespaces Accuracy rates on validation set with different patch sizes}}{10}}
\@writefile{toc}{\contentsline {section}{\numberline {5}Experiment 3 - Number of Feature Maps}{11}}
\@writefile{toc}{\contentsline {subsection}{\numberline {5.1}Background}{11}}
\@writefile{toc}{\contentsline {subsection}{\numberline {5.2}Experimental Procedure}{11}}
\@writefile{lot}{\contentsline {table}{\numberline {1}{\ignorespaces Combinations of \textit  {numchannels1} and \textit  {numchannels2} used}}{11}}
\newlabel{my-label}{{1}{11}}
\@writefile{toc}{\contentsline {subsection}{\numberline {5.3}Results and Discussion}{12}}
\@writefile{lof}{\contentsline {figure}{\numberline {12}{\ignorespaces Accuracy rates on validation set with different numbers of channels}}{12}}
\@writefile{lof}{\contentsline {figure}{\numberline {13}{\ignorespaces Accuracy rates on validation set with different numbers of channels}}{12}}
\citation{quora}
\@writefile{toc}{\contentsline {section}{\numberline {6}Experiment 4 - Batch Normalization}{13}}
\@writefile{toc}{\contentsline {subsection}{\numberline {6.1}Background}{13}}
\@writefile{toc}{\contentsline {subsection}{\numberline {6.2}Experimental Design}{14}}
\@writefile{toc}{\contentsline {subsection}{\numberline {6.3}Results and Discussion}{15}}
\@writefile{lof}{\contentsline {figure}{\numberline {14}{\ignorespaces Accuracy rates on validation set with different models involving batch norm}}{15}}
\@writefile{toc}{\contentsline {section}{\numberline {7}Comparison of All Experiments}{16}}
\@writefile{lot}{\contentsline {table}{\numberline {2}{\ignorespaces Summaries of best performing models for each experiment}}{16}}
\newlabel{my-label}{{2}{16}}
\@writefile{lot}{\contentsline {table}{\numberline {3}{\ignorespaces Results from Baseline and Experiments 1 \& 2}}{16}}
\newlabel{my-label}{{3}{16}}
\@writefile{lot}{\contentsline {table}{\numberline {4}{\ignorespaces Results from Experiments 3 \& 4}}{16}}
\newlabel{my-label}{{4}{16}}
\@writefile{toc}{\contentsline {subsection}{\numberline {7.1}Conclusions}{17}}
\@writefile{toc}{\contentsline {subsection}{\numberline {7.2}Relation to Coursework 3 Baseline}{17}}
\@writefile{toc}{\contentsline {section}{\numberline {8}Experiments with Cifar-100}{17}}
\@writefile{toc}{\contentsline {subsection}{\numberline {8.1}Results and Discussion}{17}}
\@writefile{lof}{\contentsline {figure}{\numberline {15}{\ignorespaces Accuracy rates on training set of Cifar-100 with different models}}{18}}
\@writefile{lof}{\contentsline {figure}{\numberline {16}{\ignorespaces Accuracy rates on validation set of Cifar-100 with different models}}{18}}
\bibstyle{plain}
\bibdata{references1}
\bibcite{stanford}{1}
\bibcite{dropout}{2}
\bibcite{tensorflow}{3}
\bibcite{quora}{4}
